Exp04 Adder/simulation/qsim/Adder.msim.vcd
$comment
	File created using the following command:
		vcd file Adder.msim.vcd -direction
$end
$date
	Thu Nov 09 16:00:04 2017
$end
$version
	ModelSim Version 10.1d
$end
$timescale
	1ps
$end
$scope module Block_vlg_vec_tst $end
$var reg 4 ! AA [3:0] $end
$var reg 4 " BB [3:0] $end
$var reg 1 # S0 $end
$var reg 1 $ S1 $end
$var wire 1 % co $end
$var wire 1 & led [6] $end
$var wire 1 ' led [5] $end
$var wire 1 ( led [4] $end
$var wire 1 ) led [3] $end
$var wire 1 * led [2] $end
$var wire 1 + led [1] $end
$var wire 1 , led [0] $end
$var wire 1 - sel $end
$var wire 1 . sampler $end
$scope module i1 $end
$var wire 1 / gnd $end
$var wire 1 0 vcc $end
$var wire 1 1 unknown $end
$var tri1 1 2 devclrn $end
$var tri1 1 3 devpor $end
$var tri1 1 4 devoe $end
$var wire 1 5 BB[2]~input_o $end
$var wire 1 6 AA[3]~input_o $end
$var wire 1 7 co~output_o $end
$var wire 1 8 sel~output_o $end
$var wire 1 9 led[6]~output_o $end
$var wire 1 : led[5]~output_o $end
$var wire 1 ; led[4]~output_o $end
$var wire 1 < led[3]~output_o $end
$var wire 1 = led[2]~output_o $end
$var wire 1 > led[1]~output_o $end
$var wire 1 ? led[0]~output_o $end
$var wire 1 @ AA[2]~input_o $end
$var wire 1 A AA[0]~input_o $end
$var wire 1 B BB[0]~input_o $end
$var wire 1 C AA[1]~input_o $end
$var wire 1 D inst7|co2~0_combout $end
$var wire 1 E inst7|temp[2]~1_combout $end
$var wire 1 F inst7|co3~0_combout $end
$var wire 1 G BB[3]~input_o $end
$var wire 1 H inst7|co3~1_combout $end
$var wire 1 I inst7|co4~0_combout $end
$var wire 1 J inst7|temp[1]~0_combout $end
$var wire 1 K inst7|co~0_combout $end
$var wire 1 L S1~input_o $end
$var wire 1 M data[0]~0_combout $end
$var wire 1 N S0~input_o $end
$var wire 1 O inst7|CC~0_combout $end
$var wire 1 P data[2]~4_combout $end
$var wire 1 Q data[2]~5_combout $end
$var wire 1 R data[2]~6_combout $end
$var wire 1 S data[2]~7_combout $end
$var wire 1 T data[3]~1_combout $end
$var wire 1 U data[3]~9_combout $end
$var wire 1 V data[3]~8_combout $end
$var wire 1 W data[3]~10_combout $end
$var wire 1 X BB[1]~input_o $end
$var wire 1 Y data[1]~2_combout $end
$var wire 1 Z data[1]~3_combout $end
$var wire 1 [ inst|WideOr0~0_combout $end
$var wire 1 \ inst|WideOr1~0_combout $end
$var wire 1 ] inst|WideOr2~0_combout $end
$var wire 1 ^ inst|WideOr3~0_combout $end
$var wire 1 _ inst|WideOr4~0_combout $end
$var wire 1 ` inst|WideOr5~0_combout $end
$var wire 1 a inst|WideOr6~0_combout $end
$var wire 1 b inst7|temp [3] $end
$var wire 1 c inst7|temp [2] $end
$var wire 1 d inst7|temp [1] $end
$var wire 1 e inst7|temp [0] $end
$upscope $end
$upscope $end
$enddefinitions $end
#0
$dumpvars
b0 !
b10 "
0#
0$
x%
x,
x+
x*
x)
x(
x'
x&
0-
x.
0/
10
x1
12
13
14
05
06
x7
08
x9
x:
x;
x<
x=
x>
x?
0@
0A
0B
0C
xD
xE
xF
0G
xH
xI
xJ
xK
0L
xM
0N
xO
xP
xQ
xR
xS
xT
xU
xV
xW
1X
xY
xZ
x[
x\
x]
x^
x_
x`
xa
ze
zd
zc
xb
$end
#4266
1T
#4789
0F
#5161
0R
#5313
0U
#5574
0S
#5888
0I
#6071
0W
#6149
0D
#6427
0M
#6447
0Y
#6505
0H
#6580
1J
#6768
0E
#6888
0\
#6934
0b
#7032
0Z
#7293
0_
#7327
0^
#7328
0[
#7514
0`
#7518
0]
#7523
0a
#7557
0K
#7573
1O
#7607
0P
#7762
1V
#8018
0Q
#9911
1:
1'
#10657
1=
1*
#10693
1<
1)
#10701
19
1&
#10889
1;
1(
#11248
0?
0,
#11529
1>
1+
#13326
07
0%
#50000
b1 !
b11 "
0.
#50857
1A
#50887
1B
#56949
1D
#56982
1M
#56998
0J
#57621
1E
#57641
0V
#57645
0O
#57791
1`
#57793
1_
#57801
1^
1[
#58419
1P
#58441
1V
#58834
1Q
#61285
0=
0*
#61316
09
0&
#61320
0<
0)
#62005
0>
0+
#100000
b11 !
b111 "
b101 "
b10 !
b100 "
1.
#100847
15
#100877
1C
#100907
0A
#100917
0X
#100937
0B
#106689
1J
#106965
1Y
#106984
1H
#107071
0E
#107334
0M
#107371
0J
#107379
1O
#107412
1b
#107533
1Z
#107823
0D
#107852
1J
#107910
0P
#107993
0O
#108003
1K
#108005
1]
#108009
1a
#108178
0V
#108200
0_
#108234
0^
#108235
0[
#108321
0Q
#108444
0H
#108464
1E
#108873
0b
#109262
1P
#109284
1V
#109496
0K
#109512
1O
#109677
1Q
#111515
0;
0(
#111564
1=
1*
#111600
1<
1)
#111608
19
1&
#111864
1?
1,
#150000
b11 !
b101 "
0.
#150857
1A
#150887
1B
#156949
1D
#156982
1M
#156998
0J
#157599
0E
#157620
1H
#157645
0O
#157727
0]
#157793
1_
#158048
1b
#158438
0P
#158849
0Q
#161098
1;
1(
#161285
0=
0*
#200000
b111 !
1$
b101 !
b111 "
b100 !
b110 "
1.
#200857
1L
#200867
1X
#200877
1@
#200907
0A
#200927
0C
#200937
0B
#204736
0M
#204959
0T
#205187
1W
#205519
1F
#205538
1]
#205568
0Y
#205602
0_
#205897
1E
#205940
0Z
#206008
0a
#206015
1[
#206016
1_
#206017
1^
#206018
1\
#206422
0`
#206426
0]
0[
#206429
0^
0\
#206430
0_
#206453
1a
#206677
1O
#206719
0V
#206873
1K
#207258
1Y
#207300
0W
#207321
0D
#207334
1Z
#207447
1J
#207788
0a
#207804
1`
#207806
1]
#207940
0E
#207942
0H
#208115
0O
#208131
1a
#208139
1P
#208554
1Q
#208718
0Z
#208779
0P
#208973
1R
#209190
0Q
#209200
0`
#209204
0]
#209209
0a
#209389
1S
#209605
0R
#209794
1=
1*
#210018
0S
#210412
1_
#210413
1a
#210433
1^
1[
#211020
0_
#211056
0a
#211072
0^
#211073
0[
#212824
17
1%
#213215
1>
1+
#214781
0?
0,
#250000
b101 !
b111 "
0.
#250857
1A
#250887
1B
#256949
1D
#256998
0J
#257620
1H
#257621
1E
#257639
0K
#257663
1V
#258229
1W
#258401
1O
#258443
0V
#258597
1K
#259024
0W
#259058
1Z
#259062
1a
#259512
0a
#259528
1`
#259530
1]
#259855
1a
#263040
0;
0(
#263710
1?
1,
#263742
0>
0+
#300000
b1111 "
b1011 "
b111 !
b1001 "
b110 !
b1000 "
1.
#300867
1G
#300877
1C
#300897
05
#300907
0A
#300917
0X
#300937
0B
#306456
0b
#306465
1U
#306466
1I
#306689
1J
#307083
0O
#307093
1P
#307220
1T
#307371
0J
#307379
1O
#307401
0F
#307495
0E
#307508
1Q
#307644
0Y
#307820
1V
#307823
0D
#307852
1J
#307887
1Y
#307927
1R
#308009
0U
#308226
0Z
#308334
0P
#308343
1S
#308386
1W
#308444
0H
#308464
1E
#308708
0`
#308712
0]
#308717
0a
#308745
0Q
#308873
0I
#308895
1b
#309160
0R
#309262
1P
#309348
1]
1\
#309366
1_
#309387
1^
1[
#309389
1`
#309476
0O
#309573
0S
#309646
0T
#309677
1Q
#310096
1R
#310101
1Z
#310255
0Y
#310269
0V
#310447
1U
#310512
1S
#310627
0Z
#310850
0W
#311661
0`
#311666
0]
#311667
0\
#311681
1a
#312442
0?
0,
#312858
0=
0*
#312902
09
0&
#312906
0<
0)
#315037
1;
1(
#315536
1?
1,
#315676
1>
1+
#350000
b111 !
b1001 "
0.
#350857
1A
#350887
1B
#356949
1D
#356998
0J
#357599
0E
#357620
1H
#357645
0P
#357667
1O
#358026
0b
#358048
1I
#358056
0Q
#358324
1Z
#358401
0O
#358471
0R
#358773
0[
#358777
0_
0^
#358799
1\
#358802
1T
#358884
0S
#359004
0Z
#359159
1Q
#359469
1Y
#359493
0\
#359578
1R
#359591
0U
#359784
1Z
#359922
0a
#359994
1S
#360254
1`
#360256
1]
#360260
1a
#360980
0]
#360999
1\
#361042
0`
#362141
1=
1*
#362143
1<
1)
#362146
19
1&
#364132
0:
0'
#400000
b1111 !
1#
b1011 !
0$
b1001 !
b1011 "
b1000 !
b1010 "
1.
#400857
1N
#400867
16
1X
#400907
0A
#400908
0L
#400927
0@
0C
#400937
0B
#404981
0S
#405038
1M
#405166
0T
#405775
0Y
#405847
1`
0\
#405849
1_
#405937
1U
#405972
1b
#406023
0H
#406088
0R
#406108
1E
#406360
0Z
#406452
0b
#406691
1W
#406851
0a
#406868
1[
#406871
1^
#407089
1P
#407217
0M
#407258
1Y
#407321
0D
#407447
1J
#407482
0Q
#407506
0`
#407508
0[
#407510
0^
#407524
1a
#407826
1Z
#407940
0E
#408083
0_
#408137
1O
#408280
0a
#408296
1`
#408297
1[
#408298
1]
#408301
1_
1^
1\
#408779
0P
#408870
1:
1'
#408913
1Q
#409190
0Q
#409341
0=
0*
#411434
0:
0'
#411808
0;
0(
#411812
09
0&
#411820
0<
0)
#412005
0?
0,
#412510
0>
0+
#450000
b1001 !
b1011 "
0.
#450857
1A
#450887
1B
#456824
1M
#456949
1D
#456998
0J
#457621
1E
#457645
0O
#458403
1Q
#458419
1P
#458812
0Q
#500000
b1111 "
b1011 !
b1101 "
b1010 !
b1100 "
1.
#500847
15
#500877
1C
#500907
0A
#500917
0X
#500937
0B
#506689
1J
#506984
1H
#507029
1S
#507071
0E
#507217
0M
#507371
0J
#507379
1O
#507412
1b
#507644
0Y
#507823
0D
#507852
1J
#507910
0P
#507993
0O
#508155
1Q
#508229
0Z
#508321
0Q
#508444
0H
#508464
1E
#508751
1Q
#508873
0b
#509262
1P
#509512
1O
#509655
0Q
#510288
1Q
#550000
b1011 !
b1101 "
0.
#550857
1A
#550887
1B
#556824
1M
#556949
1D
#556998
0J
#557599
0E
#557620
1H
#557645
0O
#558048
1b
#558395
0Q
#558438
0P
#558832
1V
#558871
1Q
#600000
b1111 !
1$
b1101 !
b1111 "
b1100 !
b1110 "
1.
#600857
1L
#600867
1X
#600877
1@
#600907
0A
#600927
0C
#600937
0B
#604962
1R
#604967
1T
#605519
1F
#605634
1Y
#605897
1E
#605949
1Z
#606677
1O
#607217
0M
#607312
0Z
#607321
0D
#607374
0Y
#607445
0Q
#607447
1J
#607860
0R
#607940
0E
#607942
0H
#608115
0O
#608139
1P
#608740
1Z
#608779
0P
#608799
0V
#609212
1Q
#609380
0W
#609631
1R
#610191
0`
#610195
0^
0[
#610196
0]
#610199
0_
#610211
1a
#613561
1<
1)
#613563
1=
1*
#613567
1;
1(
#613568
19
1&
#614066
1?
1,
#614206
1>
1+
#650000
b1101 !
b1111 "
0.
#650857
1A
#650887
1B
#656824
1M
#656949
1D
#656998
0J
#657583
0a
#657620
1H
#657621
1E
#657633
1`
0\
#657635
1_
#657643
1^
#657663
1V
#658229
1W
#658401
1O
#659036
0Z
#659057
1[
#659059
1]
#659060
1\
#659169
0Q
#659584
0R
#661127
0=
0*
#661162
0<
0)
#661308
0?
0,
#661847
0>
0+
#662569
0;
0(
#662572
09
0&
#700000
b111 "
b11 "
b1111 !
b1 "
b1110 !
b0 "
1.
#700877
1C
#700897
05
#700907
0A
#700917
0G
0X
#700937
0B
#706689
1J
#706805
0b
#706965
1Y
#707217
0M
#707371
0J
#707401
0F
#707442
1P
#707475
0S
#707495
0E
#707823
0D
#707852
1J
#707857
1Q
#708276
1R
#708334
0P
#708444
0H
#708464
1E
#708470
0]
#708477
0_
#708499
1a
#708502
0\
#708524
0`
#708529
0^
#708530
0[
#708745
0Q
#708873
0I
#708895
1b
#709160
0R
#709262
1P
#709476
0O
#709646
0T
#709677
1Q
#710096
1R
#710101
1Z
#710255
0Y
#710269
0V
#710466
0U
#710555
0a
#710571
1`
#710572
1[
#710573
1]
#710576
1_
1^
1\
#710627
0Z
#710850
0W
#711109
0`
#711113
0]
0[
#711116
0^
0\
#711117
0_
#711140
1a
#711525
1:
1'
#711669
0a
#711841
1;
1=
1(
1*
#711895
1<
1)
#711903
19
1&
#712354
1?
1,
#712539
1>
1+
#715394
0?
0,
#750000
b1111 !
b1 "
0.
#750857
1A
#750887
1B
#756824
1M
#756949
1D
#756998
0J
#757599
0E
#757620
1H
#757633
1`
#757635
1_
#757643
1^
1[
#757645
0P
#757667
1O
#758026
0b
#758048
1I
#758056
0Q
#758324
1Z
#758401
0O
#758471
0R
#758773
0[
#758777
0^
#758800
1a
#758802
1T
#759004
0Z
#759159
1Q
#759469
1Y
#759495
0a
#759512
1[
#759515
1^
#759572
1U
#759578
1R
#759784
1Z
#760233
0[
#760237
0^
#760260
1a
#761127
0=
0*
#761158
09
0&
#761162
0<
0)
#761847
0>
0+
#763603
1<
1)
#763606
19
1&
#764115
1?
1,
#800000
b111 !
0#
b11 !
0$
b1 !
b11 "
b0 !
b10 "
1.
#800867
1X
#800907
0A
#800908
0L
0N
#800917
06
#800927
0@
0C
#800937
0B
#805178
1S
#805380
1W
#806023
0H
#806088
0R
#806108
1E
#806208
1[
#806210
1]
#806211
1\
#806216
0a
#806222
1^
#806230
0U
#806231
0I
#806240
1b
#806452
0b
#806501
0S
#806906
1P
#806928
1V
#806988
0W
#807040
0K
#807044
0Q
#807321
0D
1Q
#807334
0M
#807374
0Y
#807447
1J
#807803
0^
0[
#807805
0\
#807819
1a
#807940
0E
#807959
0Z
#808137
1O
#808200
0_
#808441
0`
#808445
0]
#808450
0a
#808779
0P
#809190
0Q
#809941
0?
0,
#811564
1=
1*
#812456
1>
1+
#812809
07
0%
#850000
b1 !
b11 "
0.
#850857
1A
#850887
1B
#856949
1D
#856982
1M
#856998
0J
#857621
1E
#857641
0V
#857645
0O
#857791
1`
#857793
1_
#857801
1^
1[
#858419
1P
#858441
1V
#858834
1Q
#861285
0=
0*
#861316
09
0&
#861320
0<
0)
#862005
0>
0+
#900000
b111 "
b11 !
b101 "
b10 !
b100 "
1.
#900847
15
#900877
1C
#900907
0A
#900917
0X
#900937
0B
#906689
1J
#906965
1Y
#906984
1H
#907071
0E
#907334
0M
#907371
0J
#907379
1O
#907412
1b
#907533
1Z
#907823
0D
#907852
1J
#907910
0P
#907993
0O
#908003
1K
#908005
1]
#908009
1a
#908178
0V
#908200
0_
#908234
0^
#908235
0[
#908321
0Q
#908444
0H
#908464
1E
#908873
0b
#909262
1P
#909284
1V
#909496
0K
#909512
1O
#909677
1Q
#911515
0;
0(
#911564
1=
1*
#911600
1<
1)
#911608
19
1&
#911864
1?
1,
#950000
b11 !
b101 "
0.
#950857
1A
#950887
1B
#956949
1D
#956982
1M
#956998
0J
#957599
0E
#957620
1H
#957645
0O
#957727
0]
#957793
1_
#958048
1b
#958438
0P
#958849
0Q
#961098
1;
1(
#961285
0=
0*
