Exp10 Stopwatch/simulation/qsim/Scanner.msim.vcd
$comment
	File created using the following command:
		vcd file Scanner.msim.vcd -direction
$end
$date
	Thu Nov 30 15:15:06 2017
$end
$version
	ModelSim Version 10.1d
$end
$timescale
	1ps
$end
$scope module timer_vlg_vec_tst $end
$var reg 1 ! clk $end
$var wire 1 " data1 [3] $end
$var wire 1 # data1 [2] $end
$var wire 1 $ data1 [1] $end
$var wire 1 % data1 [0] $end
$var wire 1 & data2 [3] $end
$var wire 1 ' data2 [2] $end
$var wire 1 ( data2 [1] $end
$var wire 1 ) data2 [0] $end
$var wire 1 * data4 [3] $end
$var wire 1 + data4 [2] $end
$var wire 1 , data4 [1] $end
$var wire 1 - data4 [0] $end
$var wire 1 . data5 [3] $end
$var wire 1 / data5 [2] $end
$var wire 1 0 data5 [1] $end
$var wire 1 1 data5 [0] $end
$var wire 1 2 data7 [3] $end
$var wire 1 3 data7 [2] $end
$var wire 1 4 data7 [1] $end
$var wire 1 5 data7 [0] $end
$var wire 1 6 data8 [3] $end
$var wire 1 7 data8 [2] $end
$var wire 1 8 data8 [1] $end
$var wire 1 9 data8 [0] $end
$var wire 1 : sampler $end
$scope module i1 $end
$var wire 1 ; gnd $end
$var wire 1 < vcc $end
$var wire 1 = unknown $end
$var tri1 1 > devclrn $end
$var tri1 1 ? devpor $end
$var tri1 1 @ devoe $end
$var wire 1 A clk~input_o $end
$var wire 1 B data1[3]~output_o $end
$var wire 1 C data1[2]~output_o $end
$var wire 1 D data1[1]~output_o $end
$var wire 1 E data1[0]~output_o $end
$var wire 1 F data2[3]~output_o $end
$var wire 1 G data2[2]~output_o $end
$var wire 1 H data2[1]~output_o $end
$var wire 1 I data2[0]~output_o $end
$var wire 1 J data4[3]~output_o $end
$var wire 1 K data4[2]~output_o $end
$var wire 1 L data4[1]~output_o $end
$var wire 1 M data4[0]~output_o $end
$var wire 1 N data5[3]~output_o $end
$var wire 1 O data5[2]~output_o $end
$var wire 1 P data5[1]~output_o $end
$var wire 1 Q data5[0]~output_o $end
$var wire 1 R data7[3]~output_o $end
$var wire 1 S data7[2]~output_o $end
$var wire 1 T data7[1]~output_o $end
$var wire 1 U data7[0]~output_o $end
$var wire 1 V data8[3]~output_o $end
$var wire 1 W data8[2]~output_o $end
$var wire 1 X data8[1]~output_o $end
$var wire 1 Y data8[0]~output_o $end
$upscope $end
$upscope $end
$enddefinitions $end
#0
$dumpvars
0!
0%
0$
0#
0"
0)
0(
0'
0&
0-
0,
0+
0*
01
00
0/
0.
05
04
03
02
09
08
07
06
x:
0;
1<
x=
1>
1?
1@
0A
0B
0C
0D
0E
0F
0G
0H
0I
0J
0K
0L
0M
0N
0O
0P
0Q
0R
0S
0T
0U
0V
0W
0X
0Y
$end
#10000
1!
1A
0:
#20000
0!
0A
1:
#30000
1!
1A
0:
#40000
0!
0A
1:
#50000
1!
1A
0:
#60000
0!
0A
1:
#70000
1!
1A
0:
#80000
0!
0A
1:
#90000
1!
1A
0:
#100000
0!
0A
1:
#110000
1!
1A
0:
#120000
0!
0A
1:
#130000
1!
1A
0:
#140000
0!
0A
1:
#150000
1!
1A
0:
#160000
0!
0A
1:
#170000
1!
1A
0:
#180000
0!
0A
1:
#190000
1!
1A
0:
#200000
0!
0A
1:
#210000
1!
1A
0:
#220000
0!
0A
1:
#230000
1!
1A
0:
#240000
0!
0A
1:
#250000
1!
1A
0:
#260000
0!
0A
1:
#270000
1!
1A
0:
#280000
0!
0A
1:
#290000
1!
1A
0:
#300000
0!
0A
1:
#310000
1!
1A
0:
#320000
0!
0A
1:
#330000
1!
1A
0:
#340000
0!
0A
1:
#350000
1!
1A
0:
#360000
0!
0A
1:
#370000
1!
1A
0:
#380000
0!
0A
1:
#390000
1!
1A
0:
#400000
0!
0A
1:
#410000
1!
1A
0:
#420000
0!
0A
1:
#430000
1!
1A
0:
#440000
0!
0A
1:
#450000
1!
1A
0:
#460000
0!
0A
1:
#470000
1!
1A
0:
#480000
0!
0A
1:
#490000
1!
1A
0:
#500000
0!
0A
1:
#510000
1!
1A
0:
#520000
0!
0A
1:
#530000
1!
1A
0:
#540000
0!
0A
1:
#550000
1!
1A
0:
#560000
0!
0A
1:
#570000
1!
1A
0:
#580000
0!
0A
1:
#590000
1!
1A
0:
#600000
0!
0A
1:
#610000
1!
1A
0:
#620000
0!
0A
1:
#630000
1!
1A
0:
#640000
0!
0A
1:
#650000
1!
1A
0:
#660000
0!
0A
1:
#670000
1!
1A
0:
#680000
0!
0A
1:
#690000
1!
1A
0:
#700000
0!
0A
1:
#710000
1!
1A
0:
#720000
0!
0A
1:
#730000
1!
1A
0:
#740000
0!
0A
1:
#750000
1!
1A
0:
#760000
0!
0A
1:
#770000
1!
1A
0:
#780000
0!
0A
1:
#790000
1!
1A
0:
#800000
0!
0A
1:
#810000
1!
1A
0:
#820000
0!
0A
1:
#830000
1!
1A
0:
#840000
0!
0A
1:
#850000
1!
1A
0:
#860000
0!
0A
1:
#870000
1!
1A
0:
#880000
0!
0A
1:
#890000
1!
1A
0:
#900000
0!
0A
1:
#910000
1!
1A
0:
#920000
0!
0A
1:
#930000
1!
1A
0:
#940000
0!
0A
1:
#950000
1!
1A
0:
#960000
0!
0A
1:
#970000
1!
1A
0:
#980000
0!
0A
1:
#990000
1!
1A
0:
