Exp07 Frequency Divider/simulation/qsim/Frequency_Divider.msim.vcd
$comment
	File created using the following command:
		vcd file Frequency_Divider.msim.vcd -direction
$end
$date
	Thu Nov 16 15:46:29 2017
$end
$version
	ModelSim Version 10.1d
$end
$timescale
	1ps
$end
$scope module Frequency_Divider_vlg_vec_tst $end
$var reg 1 ! clk_50mhz $end
$var reg 1 " rst $end
$var wire 1 # clk_1hz $end
$var wire 1 $ clk_1khz $end
$var wire 1 % clk_10hz $end
$var wire 1 & clk_100hz $end
$var wire 1 ' sampler $end
$scope module i1 $end
$var wire 1 ( gnd $end
$var wire 1 ) vcc $end
$var wire 1 * unknown $end
$var tri1 1 + devclrn $end
$var tri1 1 , devpor $end
$var tri1 1 - devoe $end
$var wire 1 . cnt1[3]~39_combout $end
$var wire 1 / cnt1[6]~45_combout $end
$var wire 1 0 cnt1[27]~87_combout $end
$var wire 1 1 cnt1[30]~94 $end
$var wire 1 2 cnt1[31]~95_combout $end
$var wire 1 3 cnt2[3]~40_combout $end
$var wire 1 4 cnt2[5]~44_combout $end
$var wire 1 5 cnt2[15]~64_combout $end
$var wire 1 6 cnt2[21]~76_combout $end
$var wire 1 7 cnt2[30]~95 $end
$var wire 1 8 cnt2[31]~96_combout $end
$var wire 1 9 cnt3[13]~59_combout $end
$var wire 1 : cnt3[15]~63_combout $end
$var wire 1 ; cnt3[19]~71_combout $end
$var wire 1 < cnt3[21]~75_combout $end
$var wire 1 = cnt3[22]~77_combout $end
$var wire 1 > cnt3[27]~87_combout $end
$var wire 1 ? cnt4[5]~42_combout $end
$var wire 1 @ cnt4[6]~44_combout $end
$var wire 1 A cnt4[22]~77_combout $end
$var wire 1 B cnt4[29]~91_combout $end
$var wire 1 C LessThan0~0_combout $end
$var wire 1 D LessThan0~8_combout $end
$var wire 1 E LessThan1~0_combout $end
$var wire 1 F LessThan2~3_combout $end
$var wire 1 G LessThan2~5_combout $end
$var wire 1 H LessThan3~3_combout $end
$var wire 1 I LessThan3~5_combout $end
$var wire 1 J cnt2[31]~38_combout $end
$var wire 1 K clk_1khz~output_o $end
$var wire 1 L clk_100hz~output_o $end
$var wire 1 M clk_10hz~output_o $end
$var wire 1 N clk_1hz~output_o $end
$var wire 1 O clk_50mhz~input_o $end
$var wire 1 P clk_50mhz~inputclkctrl_outclk $end
$var wire 1 Q rst~input_o $end
$var wire 1 R cnt1[0]~32_combout $end
$var wire 1 S cnt1[3]~34_combout $end
$var wire 1 T cnt1[0]~33 $end
$var wire 1 U cnt1[1]~35_combout $end
$var wire 1 V cnt1[1]~36 $end
$var wire 1 W cnt1[2]~37_combout $end
$var wire 1 X cnt1[2]~38 $end
$var wire 1 Y cnt1[3]~40 $end
$var wire 1 Z cnt1[4]~41_combout $end
$var wire 1 [ cnt1[4]~42 $end
$var wire 1 \ cnt1[5]~44 $end
$var wire 1 ] cnt1[6]~46 $end
$var wire 1 ^ cnt1[7]~47_combout $end
$var wire 1 _ cnt1[7]~48 $end
$var wire 1 ` cnt1[8]~49_combout $end
$var wire 1 a cnt1[8]~50 $end
$var wire 1 b cnt1[9]~51_combout $end
$var wire 1 c cnt1[9]~52 $end
$var wire 1 d cnt1[10]~53_combout $end
$var wire 1 e cnt1[10]~54 $end
$var wire 1 f cnt1[11]~56 $end
$var wire 1 g cnt1[12]~57_combout $end
$var wire 1 h cnt1[12]~58 $end
$var wire 1 i cnt1[13]~60 $end
$var wire 1 j cnt1[14]~61_combout $end
$var wire 1 k cnt1[14]~62 $end
$var wire 1 l cnt1[15]~63_combout $end
$var wire 1 m cnt1[15]~64 $end
$var wire 1 n cnt1[16]~65_combout $end
$var wire 1 o cnt1[16]~66 $end
$var wire 1 p cnt1[17]~67_combout $end
$var wire 1 q cnt1[17]~68 $end
$var wire 1 r cnt1[18]~69_combout $end
$var wire 1 s cnt1[18]~70 $end
$var wire 1 t cnt1[19]~72 $end
$var wire 1 u cnt1[20]~73_combout $end
$var wire 1 v cnt1[20]~74 $end
$var wire 1 w cnt1[21]~76 $end
$var wire 1 x cnt1[22]~77_combout $end
$var wire 1 y cnt1[21]~75_combout $end
$var wire 1 z LessThan0~6_combout $end
$var wire 1 { cnt1[19]~71_combout $end
$var wire 1 | LessThan0~5_combout $end
$var wire 1 } LessThan0~7_combout $end
$var wire 1 ~ cnt1[22]~78 $end
$var wire 1 !! cnt1[23]~79_combout $end
$var wire 1 "! cnt1[23]~80 $end
$var wire 1 #! cnt1[24]~81_combout $end
$var wire 1 $! cnt1[24]~82 $end
$var wire 1 %! cnt1[25]~83_combout $end
$var wire 1 &! cnt1[25]~84 $end
$var wire 1 '! cnt1[26]~85_combout $end
$var wire 1 (! cnt1[26]~86 $end
$var wire 1 )! cnt1[27]~88 $end
$var wire 1 *! cnt1[28]~89_combout $end
$var wire 1 +! cnt1[28]~90 $end
$var wire 1 ,! cnt1[29]~91_combout $end
$var wire 1 -! cnt1[29]~92 $end
$var wire 1 .! cnt1[30]~93_combout $end
$var wire 1 /! LessThan0~9_combout $end
$var wire 1 0! cnt1[5]~43_combout $end
$var wire 1 1! LessThan0~1_combout $end
$var wire 1 2! cnt1[13]~59_combout $end
$var wire 1 3! LessThan0~3_combout $end
$var wire 1 4! cnt1[11]~55_combout $end
$var wire 1 5! LessThan0~2_combout $end
$var wire 1 6! LessThan0~4_combout $end
$var wire 1 7! LessThan0~10_combout $end
$var wire 1 8! clk_1khz~0_combout $end
$var wire 1 9! clk_1khz~reg0_q $end
$var wire 1 :! cnt2[0]~32_combout $end
$var wire 1 ;! cnt2[23]~81 $end
$var wire 1 <! cnt2[24]~82_combout $end
$var wire 1 =! cnt2[24]~83 $end
$var wire 1 >! cnt2[25]~84_combout $end
$var wire 1 ?! cnt2[25]~85 $end
$var wire 1 @! cnt2[26]~86_combout $end
$var wire 1 A! cnt2[26]~87 $end
$var wire 1 B! cnt2[27]~89 $end
$var wire 1 C! cnt2[28]~90_combout $end
$var wire 1 D! cnt2[28]~91 $end
$var wire 1 E! cnt2[29]~93 $end
$var wire 1 F! cnt2[30]~94_combout $end
$var wire 1 G! cnt2[27]~88_combout $end
$var wire 1 H! cnt2[29]~92_combout $end
$var wire 1 I! LessThan1~7_combout $end
$var wire 1 J! LessThan1~8_combout $end
$var wire 1 K! cnt2[6]~46_combout $end
$var wire 1 L! LessThan1~1_combout $end
$var wire 1 M! cnt2[11]~56_combout $end
$var wire 1 N! cnt2[13]~60_combout $end
$var wire 1 O! LessThan1~2_combout $end
$var wire 1 P! LessThan1~3_combout $end
$var wire 1 Q! LessThan1~4_combout $end
$var wire 1 R! cnt2[31]~39_combout $end
$var wire 1 S! cnt2[0]~33 $end
$var wire 1 T! cnt2[1]~34_combout $end
$var wire 1 U! cnt2[1]~35 $end
$var wire 1 V! cnt2[2]~36_combout $end
$var wire 1 W! cnt2[2]~37 $end
$var wire 1 X! cnt2[3]~41 $end
$var wire 1 Y! cnt2[4]~42_combout $end
$var wire 1 Z! cnt2[4]~43 $end
$var wire 1 [! cnt2[5]~45 $end
$var wire 1 \! cnt2[6]~47 $end
$var wire 1 ]! cnt2[7]~48_combout $end
$var wire 1 ^! cnt2[7]~49 $end
$var wire 1 _! cnt2[8]~50_combout $end
$var wire 1 `! cnt2[8]~51 $end
$var wire 1 a! cnt2[9]~52_combout $end
$var wire 1 b! cnt2[9]~53 $end
$var wire 1 c! cnt2[10]~54_combout $end
$var wire 1 d! cnt2[10]~55 $end
$var wire 1 e! cnt2[11]~57 $end
$var wire 1 f! cnt2[12]~58_combout $end
$var wire 1 g! cnt2[12]~59 $end
$var wire 1 h! cnt2[13]~61 $end
$var wire 1 i! cnt2[14]~62_combout $end
$var wire 1 j! cnt2[14]~63 $end
$var wire 1 k! cnt2[15]~65 $end
$var wire 1 l! cnt2[16]~66_combout $end
$var wire 1 m! cnt2[16]~67 $end
$var wire 1 n! cnt2[17]~68_combout $end
$var wire 1 o! cnt2[17]~69 $end
$var wire 1 p! cnt2[18]~70_combout $end
$var wire 1 q! cnt2[18]~71 $end
$var wire 1 r! cnt2[19]~73 $end
$var wire 1 s! cnt2[20]~74_combout $end
$var wire 1 t! cnt2[20]~75 $end
$var wire 1 u! cnt2[21]~77 $end
$var wire 1 v! cnt2[22]~79 $end
$var wire 1 w! cnt2[23]~80_combout $end
$var wire 1 x! cnt2[22]~78_combout $end
$var wire 1 y! LessThan1~6_combout $end
$var wire 1 z! cnt2[19]~72_combout $end
$var wire 1 {! LessThan1~5_combout $end
$var wire 1 |! LessThan1~9_combout $end
$var wire 1 }! clk_100hz~0_combout $end
$var wire 1 ~! clk_100hz~reg0_q $end
$var wire 1 !" cnt3[0]~32_combout $end
$var wire 1 "" cnt3[31]~40_combout $end
$var wire 1 #" cnt3[0]~33 $end
$var wire 1 $" cnt3[1]~34_combout $end
$var wire 1 %" cnt3[1]~35 $end
$var wire 1 &" cnt3[2]~36_combout $end
$var wire 1 '" cnt3[2]~37 $end
$var wire 1 (" cnt3[3]~39 $end
$var wire 1 )" cnt3[4]~41_combout $end
$var wire 1 *" cnt3[4]~42 $end
$var wire 1 +" cnt3[5]~44 $end
$var wire 1 ," cnt3[6]~46 $end
$var wire 1 -" cnt3[7]~47_combout $end
$var wire 1 ." cnt3[7]~48 $end
$var wire 1 /" cnt3[8]~49_combout $end
$var wire 1 0" cnt3[8]~50 $end
$var wire 1 1" cnt3[9]~51_combout $end
$var wire 1 2" cnt3[9]~52 $end
$var wire 1 3" cnt3[10]~53_combout $end
$var wire 1 4" cnt3[10]~54 $end
$var wire 1 5" cnt3[11]~56 $end
$var wire 1 6" cnt3[12]~57_combout $end
$var wire 1 7" cnt3[12]~58 $end
$var wire 1 8" cnt3[13]~60 $end
$var wire 1 9" cnt3[14]~61_combout $end
$var wire 1 :" cnt3[14]~62 $end
$var wire 1 ;" cnt3[15]~64 $end
$var wire 1 <" cnt3[16]~65_combout $end
$var wire 1 =" cnt3[16]~66 $end
$var wire 1 >" cnt3[17]~67_combout $end
$var wire 1 ?" cnt3[17]~68 $end
$var wire 1 @" cnt3[18]~69_combout $end
$var wire 1 A" cnt3[18]~70 $end
$var wire 1 B" cnt3[19]~72 $end
$var wire 1 C" cnt3[20]~73_combout $end
$var wire 1 D" cnt3[20]~74 $end
$var wire 1 E" cnt3[21]~76 $end
$var wire 1 F" cnt3[22]~78 $end
$var wire 1 G" cnt3[23]~79_combout $end
$var wire 1 H" cnt3[23]~80 $end
$var wire 1 I" cnt3[24]~81_combout $end
$var wire 1 J" cnt3[24]~82 $end
$var wire 1 K" cnt3[25]~83_combout $end
$var wire 1 L" LessThan2~6_combout $end
$var wire 1 M" cnt3[25]~84 $end
$var wire 1 N" cnt3[26]~85_combout $end
$var wire 1 O" cnt3[26]~86 $end
$var wire 1 P" cnt3[27]~88 $end
$var wire 1 Q" cnt3[28]~89_combout $end
$var wire 1 R" cnt3[28]~90 $end
$var wire 1 S" cnt3[29]~92 $end
$var wire 1 T" cnt3[30]~93_combout $end
$var wire 1 U" cnt3[30]~94 $end
$var wire 1 V" cnt3[31]~95_combout $end
$var wire 1 W" cnt3[29]~91_combout $end
$var wire 1 X" LessThan2~7_combout $end
$var wire 1 Y" LessThan2~8_combout $end
$var wire 1 Z" cnt3[6]~45_combout $end
$var wire 1 [" cnt3[5]~43_combout $end
$var wire 1 \" cnt3[3]~38_combout $end
$var wire 1 ]" LessThan2~0_combout $end
$var wire 1 ^" LessThan2~1_combout $end
$var wire 1 _" cnt3[11]~55_combout $end
$var wire 1 `" LessThan2~2_combout $end
$var wire 1 a" LessThan2~4_combout $end
$var wire 1 b" LessThan2~9_combout $end
$var wire 1 c" clk_10hz~0_combout $end
$var wire 1 d" clk_10hz~reg0_q $end
$var wire 1 e" cnt4[0]~32_combout $end
$var wire 1 f" cnt4[0]~46_combout $end
$var wire 1 g" cnt4[0]~33 $end
$var wire 1 h" cnt4[1]~34_combout $end
$var wire 1 i" cnt4[1]~35 $end
$var wire 1 j" cnt4[2]~36_combout $end
$var wire 1 k" cnt4[2]~37 $end
$var wire 1 l" cnt4[3]~39 $end
$var wire 1 m" cnt4[4]~40_combout $end
$var wire 1 n" cnt4[4]~41 $end
$var wire 1 o" cnt4[5]~43 $end
$var wire 1 p" cnt4[6]~45 $end
$var wire 1 q" cnt4[7]~47_combout $end
$var wire 1 r" cnt4[7]~48 $end
$var wire 1 s" cnt4[8]~49_combout $end
$var wire 1 t" cnt4[8]~50 $end
$var wire 1 u" cnt4[9]~51_combout $end
$var wire 1 v" cnt4[9]~52 $end
$var wire 1 w" cnt4[10]~53_combout $end
$var wire 1 x" cnt4[10]~54 $end
$var wire 1 y" cnt4[11]~56 $end
$var wire 1 z" cnt4[12]~57_combout $end
$var wire 1 {" cnt4[12]~58 $end
$var wire 1 |" cnt4[13]~59_combout $end
$var wire 1 }" cnt4[13]~60 $end
$var wire 1 ~" cnt4[14]~61_combout $end
$var wire 1 !# cnt4[14]~62 $end
$var wire 1 "# cnt4[15]~63_combout $end
$var wire 1 ## cnt4[15]~64 $end
$var wire 1 $# cnt4[16]~65_combout $end
$var wire 1 %# cnt4[16]~66 $end
$var wire 1 &# cnt4[17]~67_combout $end
$var wire 1 '# cnt4[17]~68 $end
$var wire 1 (# cnt4[18]~69_combout $end
$var wire 1 )# cnt4[18]~70 $end
$var wire 1 *# cnt4[19]~72 $end
$var wire 1 +# cnt4[20]~73_combout $end
$var wire 1 ,# cnt4[20]~74 $end
$var wire 1 -# cnt4[21]~76 $end
$var wire 1 .# cnt4[22]~78 $end
$var wire 1 /# cnt4[23]~79_combout $end
$var wire 1 0# cnt4[23]~80 $end
$var wire 1 1# cnt4[24]~81_combout $end
$var wire 1 2# cnt4[24]~82 $end
$var wire 1 3# cnt4[25]~83_combout $end
$var wire 1 4# cnt4[25]~84 $end
$var wire 1 5# cnt4[26]~85_combout $end
$var wire 1 6# cnt4[26]~86 $end
$var wire 1 7# cnt4[27]~88 $end
$var wire 1 8# cnt4[28]~89_combout $end
$var wire 1 9# cnt4[28]~90 $end
$var wire 1 :# cnt4[29]~92 $end
$var wire 1 ;# cnt4[30]~93_combout $end
$var wire 1 <# cnt4[30]~94 $end
$var wire 1 =# cnt4[31]~95_combout $end
$var wire 1 ># LessThan3~7_combout $end
$var wire 1 ?# cnt4[27]~87_combout $end
$var wire 1 @# LessThan3~8_combout $end
$var wire 1 A# cnt4[21]~75_combout $end
$var wire 1 B# cnt4[19]~71_combout $end
$var wire 1 C# LessThan3~6_combout $end
$var wire 1 D# LessThan3~9_combout $end
$var wire 1 E# LessThan3~0_combout $end
$var wire 1 F# cnt4[3]~38_combout $end
$var wire 1 G# LessThan3~2_combout $end
$var wire 1 H# cnt4[11]~55_combout $end
$var wire 1 I# LessThan3~1_combout $end
$var wire 1 J# LessThan3~4_combout $end
$var wire 1 K# LessThan3~10_combout $end
$var wire 1 L# clk_1hz~0_combout $end
$var wire 1 M# clk_1hz~reg0_q $end
$var wire 1 N# cnt4 [31] $end
$var wire 1 O# cnt4 [30] $end
$var wire 1 P# cnt4 [29] $end
$var wire 1 Q# cnt4 [28] $end
$var wire 1 R# cnt4 [27] $end
$var wire 1 S# cnt4 [26] $end
$var wire 1 T# cnt4 [25] $end
$var wire 1 U# cnt4 [24] $end
$var wire 1 V# cnt4 [23] $end
$var wire 1 W# cnt4 [22] $end
$var wire 1 X# cnt4 [21] $end
$var wire 1 Y# cnt4 [20] $end
$var wire 1 Z# cnt4 [19] $end
$var wire 1 [# cnt4 [18] $end
$var wire 1 \# cnt4 [17] $end
$var wire 1 ]# cnt4 [16] $end
$var wire 1 ^# cnt4 [15] $end
$var wire 1 _# cnt4 [14] $end
$var wire 1 `# cnt4 [13] $end
$var wire 1 a# cnt4 [12] $end
$var wire 1 b# cnt4 [11] $end
$var wire 1 c# cnt4 [10] $end
$var wire 1 d# cnt4 [9] $end
$var wire 1 e# cnt4 [8] $end
$var wire 1 f# cnt4 [7] $end
$var wire 1 g# cnt4 [6] $end
$var wire 1 h# cnt4 [5] $end
$var wire 1 i# cnt4 [4] $end
$var wire 1 j# cnt4 [3] $end
$var wire 1 k# cnt4 [2] $end
$var wire 1 l# cnt4 [1] $end
$var wire 1 m# cnt4 [0] $end
$var wire 1 n# cnt3 [31] $end
$var wire 1 o# cnt3 [30] $end
$var wire 1 p# cnt3 [29] $end
$var wire 1 q# cnt3 [28] $end
$var wire 1 r# cnt3 [27] $end
$var wire 1 s# cnt3 [26] $end
$var wire 1 t# cnt3 [25] $end
$var wire 1 u# cnt3 [24] $end
$var wire 1 v# cnt3 [23] $end
$var wire 1 w# cnt3 [22] $end
$var wire 1 x# cnt3 [21] $end
$var wire 1 y# cnt3 [20] $end
$var wire 1 z# cnt3 [19] $end
$var wire 1 {# cnt3 [18] $end
$var wire 1 |# cnt3 [17] $end
$var wire 1 }# cnt3 [16] $end
$var wire 1 ~# cnt3 [15] $end
$var wire 1 !$ cnt3 [14] $end
$var wire 1 "$ cnt3 [13] $end
$var wire 1 #$ cnt3 [12] $end
$var wire 1 $$ cnt3 [11] $end
$var wire 1 %$ cnt3 [10] $end
$var wire 1 &$ cnt3 [9] $end
$var wire 1 '$ cnt3 [8] $end
$var wire 1 ($ cnt3 [7] $end
$var wire 1 )$ cnt3 [6] $end
$var wire 1 *$ cnt3 [5] $end
$var wire 1 +$ cnt3 [4] $end
$var wire 1 ,$ cnt3 [3] $end
$var wire 1 -$ cnt3 [2] $end
$var wire 1 .$ cnt3 [1] $end
$var wire 1 /$ cnt3 [0] $end
$var wire 1 0$ cnt1 [31] $end
$var wire 1 1$ cnt1 [30] $end
$var wire 1 2$ cnt1 [29] $end
$var wire 1 3$ cnt1 [28] $end
$var wire 1 4$ cnt1 [27] $end
$var wire 1 5$ cnt1 [26] $end
$var wire 1 6$ cnt1 [25] $end
$var wire 1 7$ cnt1 [24] $end
$var wire 1 8$ cnt1 [23] $end
$var wire 1 9$ cnt1 [22] $end
$var wire 1 :$ cnt1 [21] $end
$var wire 1 ;$ cnt1 [20] $end
$var wire 1 <$ cnt1 [19] $end
$var wire 1 =$ cnt1 [18] $end
$var wire 1 >$ cnt1 [17] $end
$var wire 1 ?$ cnt1 [16] $end
$var wire 1 @$ cnt1 [15] $end
$var wire 1 A$ cnt1 [14] $end
$var wire 1 B$ cnt1 [13] $end
$var wire 1 C$ cnt1 [12] $end
$var wire 1 D$ cnt1 [11] $end
$var wire 1 E$ cnt1 [10] $end
$var wire 1 F$ cnt1 [9] $end
$var wire 1 G$ cnt1 [8] $end
$var wire 1 H$ cnt1 [7] $end
$var wire 1 I$ cnt1 [6] $end
$var wire 1 J$ cnt1 [5] $end
$var wire 1 K$ cnt1 [4] $end
$var wire 1 L$ cnt1 [3] $end
$var wire 1 M$ cnt1 [2] $end
$var wire 1 N$ cnt1 [1] $end
$var wire 1 O$ cnt1 [0] $end
$var wire 1 P$ cnt2 [31] $end
$var wire 1 Q$ cnt2 [30] $end
$var wire 1 R$ cnt2 [29] $end
$var wire 1 S$ cnt2 [28] $end
$var wire 1 T$ cnt2 [27] $end
$var wire 1 U$ cnt2 [26] $end
$var wire 1 V$ cnt2 [25] $end
$var wire 1 W$ cnt2 [24] $end
$var wire 1 X$ cnt2 [23] $end
$var wire 1 Y$ cnt2 [22] $end
$var wire 1 Z$ cnt2 [21] $end
$var wire 1 [$ cnt2 [20] $end
$var wire 1 \$ cnt2 [19] $end
$var wire 1 ]$ cnt2 [18] $end
$var wire 1 ^$ cnt2 [17] $end
$var wire 1 _$ cnt2 [16] $end
$var wire 1 `$ cnt2 [15] $end
$var wire 1 a$ cnt2 [14] $end
$var wire 1 b$ cnt2 [13] $end
$var wire 1 c$ cnt2 [12] $end
$var wire 1 d$ cnt2 [11] $end
$var wire 1 e$ cnt2 [10] $end
$var wire 1 f$ cnt2 [9] $end
$var wire 1 g$ cnt2 [8] $end
$var wire 1 h$ cnt2 [7] $end
$var wire 1 i$ cnt2 [6] $end
$var wire 1 j$ cnt2 [5] $end
$var wire 1 k$ cnt2 [4] $end
$var wire 1 l$ cnt2 [3] $end
$var wire 1 m$ cnt2 [2] $end
$var wire 1 n$ cnt2 [1] $end
$var wire 1 o$ cnt2 [0] $end
$upscope $end
$upscope $end
$enddefinitions $end
#0
$dumpvars
0!
1"
x#
x$
x%
x&
x'
0(
1)
x*
1+
1,
1-
x.
x/
x0
x1
x2
x3
x4
x5
x6
x7
x8
x9
x:
x;
x<
x=
x>
x?
x@
xA
xB
xC
xD
xE
xF
xG
xH
xI
xJ
xK
xL
xM
xN
0O
xP
1Q
xR
xS
xT
xU
xV
xW
xX
xY
xZ
x[
x\
x]
x^
x_
x`
xa
xb
xc
xd
xe
xf
xg
xh
xi
xj
xk
xl
xm
xn
xo
xp
xq
xr
xs
xt
xu
xv
xw
xx
xy
xz
x{
x|
x}
x~
x!!
x"!
x#!
x$!
x%!
x&!
x'!
x(!
x)!
x*!
x+!
x,!
x-!
x.!
x/!
x0!
x1!
x2!
x3!
x4!
x5!
x6!
x7!
x8!
09!
x:!
x;!
x<!
x=!
x>!
x?!
x@!
xA!
xB!
xC!
xD!
xE!
xF!
xG!
xH!
xI!
xJ!
xK!
xL!
xM!
xN!
xO!
xP!
xQ!
xR!
xS!
xT!
xU!
xV!
xW!
xX!
xY!
xZ!
x[!
x\!
x]!
x^!
x_!
x`!
xa!
xb!
xc!
xd!
xe!
xf!
xg!
xh!
xi!
xj!
xk!
xl!
xm!
xn!
xo!
xp!
xq!
xr!
xs!
xt!
xu!
xv!
xw!
xx!
xy!
xz!
x{!
x|!
x}!
0~!
x!"
x""
x#"
x$"
x%"
x&"
x'"
x("
x)"
x*"
x+"
x,"
x-"
x."
x/"
x0"
x1"
x2"
x3"
x4"
x5"
x6"
x7"
x8"
x9"
x:"
x;"
x<"
x="
x>"
x?"
x@"
xA"
xB"
xC"
xD"
xE"
xF"
xG"
xH"
xI"
xJ"
xK"
xL"
xM"
xN"
xO"
xP"
xQ"
xR"
xS"
xT"
xU"
xV"
xW"
xX"
xY"
xZ"
x["
x\"
x]"
x^"
x_"
x`"
xa"
xb"
xc"
0d"
xe"
xf"
xg"
xh"
xi"
xj"
xk"
xl"
xm"
xn"
xo"
xp"
xq"
xr"
xs"
xt"
xu"
xv"
xw"
xx"
xy"
xz"
x{"
x|"
x}"
x~"
x!#
x"#
x##
x$#
x%#
x&#
x'#
x(#
x)#
x*#
x+#
x,#
x-#
x.#
x/#
x0#
x1#
x2#
x3#
x4#
x5#
x6#
x7#
x8#
x9#
x:#
x;#
x<#
x=#
x>#
x?#
x@#
xA#
xB#
xC#
xD#
xE#
xF#
xG#
xH#
xI#
xJ#
xK#
xL#
0M#
0m#
0l#
0k#
0j#
0i#
0h#
0g#
0f#
0e#
0d#
0c#
0b#
0a#
0`#
0_#
0^#
0]#
0\#
0[#
0Z#
0Y#
0X#
0W#
0V#
0U#
0T#
0S#
0R#
0Q#
0P#
0O#
0N#
0/$
0.$
0-$
0,$
0+$
0*$
0)$
0($
0'$
0&$
0%$
0$$
0#$
0"$
0!$
0~#
0}#
0|#
0{#
0z#
0y#
0x#
0w#
0v#
0u#
0t#
0s#
0r#
0q#
0p#
0o#
0n#
0O$
0N$
0M$
0L$
0K$
0J$
0I$
0H$
0G$
0F$
0E$
0D$
0C$
0B$
0A$
0@$
0?$
0>$
0=$
0<$
0;$
0:$
09$
08$
07$
06$
05$
04$
03$
02$
01$
00$
0o$
0n$
0m$
0l$
0k$
0j$
0i$
0h$
0g$
0f$
0e$
0d$
0c$
0b$
0a$
0`$
0_$
0^$
0]$
0\$
0[$
0Z$
0Y$
0X$
0W$
0V$
0U$
0T$
0S$
0R$
0Q$
0P$
$end
#176
0P
#827
0#"
0S!
#828
0'"
#853
0g"
0T
#854
0%#
0k"
0="
0m!
0W!
0o
0X
#855
0)#
0{"
0n"
0A"
07"
0*"
0q!
0j!
0g!
0Z!
0s
0k
0h
0[
#856
0t"
00"
0`!
0a
#857
0<#
09#
0,#
0x"
0U"
0R"
0D"
04"
0t!
0d!
07
0D!
01
0+!
0v
0e
#858
06#
02#
0O"
0J"
0A!
0=!
0(!
0$!
#861
0,"
0\!
0p"
0]
#862
0v!
0~
0.#
0F"
#878
1:!
1!"
#904
1R
1e"
#928
1}"
1m
1i
#972
1%"
1U!
#987
1I
#996
1l"
1("
1h!
1;"
18"
1k!
1X!
1Y
#997
1y"
1*#
15"
1+"
1r!
1e!
1f
1\
1t
1o"
1B"
1[!
1i"
1V
#998
17#
1S"
1E!
1B!
1-!
1:#
1P"
1)!
1'#
1?"
1o!
1q
#999
1-#
1w
1E"
1u!
#1000
1r"
1."
1^!
1_
#1001
0!#
1v"
12"
1b!
1c
0D
#1002
14#
10#
1M"
1H"
1;!
1?!
1&!
1"!
#1029
1X"
#1068
0z
#1077
0O!
#1087
1>#
#1090
0/!
#1100
1C#
#1185
1@#
#1226
0E
#1242
1E#
#1302
03!
#1306
1G#
#1318
1G
#1334
0|
#1355
02!
1`"
#1362
0y!
#1364
1L"
#1373
1F
#1386
0:"
#1389
0{!
#1401
0L!
#1404
0T!
0$"
#1405
0\"
#1416
0~"
#1417
01!
#1419
1^"
#1430
0U
0h"
#1431
0.
0p
03
0n!
0>"
0F#
0&#
#1432
00!
0{
04
0N!
05
0z!
0["
09
0;
0?
0B#
#1433
0b
0a!
01"
0u"
#1434
04!
0y
0,!
02
0H!
08
0M!
06
0_"
0<
0W"
0V"
0H#
0A#
0B
0=#
#1435
0%!
00
0>!
0G!
0K"
0>
03#
0?#
#1438
0^
0q"
0]!
0-"
#1439
0G"
0/#
0!!
0w!
#1448
0l
#1459
0|"
#1467
1H
#1491
1]"
#1504
0P!
#1505
0j
0n
#1512
1##
#1549
0V!
0&"
#1573
0Z
0Y!
0l!
09"
0<"
0i!
0)"
0m"
#1574
0W
0j"
0K!
0C"
0@
0u
0/
0g
0f!
0s!
0Z"
06"
0+#
0z"
#1575
0r
0p!
0@"
0(#
0*!
0Q"
0;#
0.!
0C!
0F!
0T"
08#
#1576
0x!
0=
0x
0A
#1577
0`
0_!
0/"
0s"
#1578
0d
0c!
03"
0w"
0"#
#1579
0#!
0'!
0@!
0<!
0I"
0N"
01#
05#
#1595
1Y"
#1602
0C
#1635
05!
#1683
0I!
#1701
1I#
#1746
0}
#1917
0Q!
#1963
0:
#1989
1D#
#2089
0$#
#2095
0J!
#2118
1J#
#2161
1a"
#2367
06!
#2533
1K#
#2577
1b"
#2686
0|!
#2778
07!
#2935
0L#
#2978
0c"
#3065
0L
0&
#3099
0}!
#3201
08!
#3509
0N
0#
#3587
0M
0%
#3857
0K
0$
#4811
0J
#4967
0""
#5285
0S
#5420
0f"
#5578
0R!
#10000
1!
0'
#10897
1O
#11083
1P
#13471
1m#
#13479
1o$
#13495
1O$
#14002
1/$
#14282
0:!
#14300
0e"
#14324
0R
#14374
1S!
#14392
1g"
#14416
1T
#14805
0!"
#14897
1#"
#14926
0G#
#14981
1T!
#14999
1h"
#15023
1U
#15062
1C
#15504
1$"
#15812
16!
#16227
17!
#16650
18!
#16653
1S
#20000
0!
1'
#20948
0O
#21124
0P
#30000
1!
0'
#30897
1O
#31083
1P
#33471
0m#
1l#
#33479
0o$
1n$
#33493
19!
#33495
0O$
#33975
08!
#34002
0/$
1.$
#34231
0U!
#34248
0i"
#34297
0T!
#34306
0S!
#34314
0h"
#34324
0g"
#34348
0T
#34357
1:!
#34375
1e"
#34379
1U!
#34397
1i"
#34399
1R
#34754
0%"
#34820
0$"
#34829
0#"
#34880
1!"
#34902
1%"
#34913
1T!
#34925
0U
#34931
1h"
#34956
0C
#35436
1$"
#35721
06!
#36132
07!
#36558
0S
#36577
18!
#37405
1K
1$
#40000
0!
1'
#40948
0O
#41124
0P
#50000
1!
0'
#50897
1O
#51083
1P
#53471
1m#
#53479
1o$
#53495
1O$
#54002
1/$
#54282
0:!
#54300
0e"
#54324
0R
#54374
1S!
#54392
1g"
#54416
1T
#54447
0U!
#54465
0i"
#54805
0!"
#54897
1#"
#54951
0T!
#54969
0h"
#54970
0%"
#55023
1U
#55054
1V!
#55062
1C
#55072
1j"
#55474
0$"
#55577
1&"
#55812
16!
#56227
17!
#56628
08!
#56653
1S
#60000
0!
1'
#60948
0O
#61124
0P
#70000
1!
0'
#70897
1O
#71083
1P
#73471
0m#
0l#
1k#
#73479
0o$
0n$
1m$
#73493
09!
#73495
0O$
#73955
18!
#74002
0/$
0.$
1-$
#74301
0j"
#74306
0S!
#74309
0V!
#74324
0g"
#74348
0T
#74357
1:!
#74375
1e"
#74393
1k"
#74399
1R
#74401
1W!
#74451
1U!
#74468
1i"
#74524
0W!
#74541
0k"
#74592
1E
#74806
0&"
#74829
0#"
#74880
1!"
#74898
1'"
#74925
0U
#74956
0C
#74974
1%"
#75047
0'"
#75058
1V!
#75075
1j"
#75342
1Q!
#75581
1&"
#75721
06!
#75767
1R!
#76101
1|!
#76132
07!
#76518
1}!
#76555
08!
#76558
0S
#77350
0K
0$
#80000
0!
1'
#80948
0O
#81124
0P
#90000
1!
0'
#90897
1O
#91083
1P
#93471
1m#
#93477
1~!
#93479
0m$
#93495
1O$
#93959
0}!
#94002
1/$
#94300
0e"
#94324
0R
#94385
0V!
#94392
1g"
#94416
1T
#94578
0E
#94805
0!"
#94897
1#"
#94999
1h"
#95023
1U
#95062
1C
#95345
0Q!
#95504
1$"
#95773
0R!
#95812
16!
#96122
0|!
#96227
17!
#96557
1}!
#96620
1L
1&
#96650
18!
#96653
1S
#100000
0!
1'
#100948
0O
#101124
0P
#110000
1!
0'
#110897
1O
#111083
1P
#113471
0m#
1l#
#113479
1o$
#113493
19!
#113495
0O$
#113975
08!
#114002
0/$
1.$
#114248
0i"
#114282
0:!
