Exp06 Counter/simulation/qsim/Counter.msim.vcd
$comment
	File created using the following command:
		vcd file Counter.msim.vcd -direction
$end
$date
	Mon Nov 13 14:48:45 2017
$end
$version
	ModelSim Version 10.1d
$end
$timescale
	1ps
$end
$scope module scanner_vlg_vec_tst $end
$var reg 1 ! clk $end
$var wire 1 " ds [7] $end
$var wire 1 # ds [6] $end
$var wire 1 $ ds [5] $end
$var wire 1 % ds [4] $end
$var wire 1 & ds [3] $end
$var wire 1 ' ds [2] $end
$var wire 1 ( ds [1] $end
$var wire 1 ) ds [0] $end
$var wire 1 * sel [2] $end
$var wire 1 + sel [1] $end
$var wire 1 , sel [0] $end
$var wire 1 - sampler $end
$scope module i1 $end
$var wire 1 . gnd $end
$var wire 1 / vcc $end
$var wire 1 0 unknown $end
$var tri1 1 1 devclrn $end
$var tri1 1 2 devpor $end
$var tri1 1 3 devoe $end
$var wire 1 4 sel[0]~output_o $end
$var wire 1 5 sel[1]~output_o $end
$var wire 1 6 sel[2]~output_o $end
$var wire 1 7 ds[0]~output_o $end
$var wire 1 8 ds[1]~output_o $end
$var wire 1 9 ds[2]~output_o $end
$var wire 1 : ds[3]~output_o $end
$var wire 1 ; ds[4]~output_o $end
$var wire 1 < ds[5]~output_o $end
$var wire 1 = ds[6]~output_o $end
$var wire 1 > ds[7]~output_o $end
$var wire 1 ? clk~input_o $end
$var wire 1 @ sel[0]~2_combout $end
$var wire 1 A sel[0]~reg0_q $end
$var wire 1 B sel[1]~0_combout $end
$var wire 1 C sel[1]~reg0_q $end
$var wire 1 D sel[2]~1_combout $end
$var wire 1 E sel[2]~reg0_q $end
$var wire 1 F Decoder0~0_combout $end
$var wire 1 G ds[0]~reg0_q $end
$var wire 1 H Decoder0~1_combout $end
$var wire 1 I ds[1]~reg0_q $end
$var wire 1 J Decoder0~2_combout $end
$var wire 1 K ds[2]~reg0_q $end
$var wire 1 L Decoder0~3_combout $end
$var wire 1 M ds[3]~reg0_q $end
$var wire 1 N Decoder0~4_combout $end
$var wire 1 O ds[4]~reg0_q $end
$var wire 1 P Decoder0~5_combout $end
$var wire 1 Q ds[5]~reg0_q $end
$var wire 1 R Decoder0~6_combout $end
$var wire 1 S ds[6]~reg0_q $end
$var wire 1 T Decoder0~7_combout $end
$var wire 1 U ds[7]~reg0_q $end
$upscope $end
$upscope $end
$enddefinitions $end
#0
$dumpvars
0!
x)
x(
x'
x&
x%
x$
x#
x"
x,
x+
x*
x-
0.
1/
x0
11
12
13
x4
x5
x6
x7
x8
x9
x:
x;
x<
x=
x>
0?
1@
0A
xB
0C
xD
0E
xF
0G
xH
0I
xJ
0K
xL
0M
xN
0O
xP
0Q
xR
0S
xT
0U
$end
#647
0T
#648
0F
#666
0D
#738
0B
#835
0N
#837
0R
#839
0J
#1016
0P
#1019
1H
#1031
0L
#2921
05
0+
#2963
06
0*
#3261
04
0,
#3271
0;
0%
#3273
0<
0$
#3646
08
0(
#3686
09
0'
#3694
0:
0&
#3910
0>
0"
#4110
07
0)
#4248
0=
0#
#10000
1!
0-
#10857
1?
#12913
1A
1I
#13395
0@
#13633
0H
#13646
1J
#13656
1B
#16228
14
1,
#16614
18
1(
#20000
0!
1-
#20908
0?
#30000
1!
0-
#30857
1?
#32913
0A
1C
0I
1K
#33375
1@
#33395
0B
#33673
1B
#33675
1L
#33832
0J
#35847
15
1+
#36174
04
0,
#36559
08
0(
#36662
19
1'
#40000
0!
1-
#40908
0?
#50000
1!
0-
#50857
1?
#52913
1A
0K
1M
#53395
0@
#53634
0B
#53635
0L
#53644
1N
#53794
1D
#56228
14
1,
#56599
09
0'
#56667
1:
1&
#60000
0!
1-
#60908
0?
#70000
1!
0-
#70857
1?
#72913
0A
0C
1E
0M
1O
#73375
1B
1@
#73395
0D
#73466
0N
#73601
1D
#73651
0B
#73759
1P
#75834
05
0+
#75883
16
1*
#76174
04
0,
#76224
1;
1%
#76607
0:
0&
#80000
0!
1-
#80908
0?
#90000
1!
0-
#90857
1?
#92913
1A
0O
1Q
#93395
0@
#93635
0P
#93647
1R
#93656
1B
#96184
0;
0%
#96225
1<
1$
#96228
14
1,
#100000
0!
1-
#100908
0?
#110000
1!
0-
#110857
1?
#112913
0A
1C
0Q
1S
#113375
1@
#113395
0B
#113460
0D
#113463
0R
#113673
1B
#113759
1T
#113908
1D
#115847
15
1+
#116174
04
0,
#116186
0<
0$
#117227
1=
1#
#120000
0!
1-
#120908
0?
#130000
1!
0-
#130857
1?
#132913
1A
0S
1U
#133395
0@
#133634
0B
#133636
0T
#133646
1F
#133795
0D
#136228
14
1,
#136959
1>
1"
#137161
0=
0#
#140000
0!
1-
#140908
0?
#150000
1!
0-
#150857
1?
#152913
0A
0C
0E
1G
0U
#153375
1D
1B
1@
#153561
0F
#153579
0D
#153651
0B
#153932
1H
#155834
05
0+
#155876
06
0*
#156174
04
0,
#156823
0>
0"
#157198
17
1)
#160000
0!
1-
#160908
0?
#170000
1!
0-
#170857
1?
#172913
1A
0G
1I
#173395
0@
#173633
0H
#173646
1J
#173656
1B
#176228
14
1,
#176614
18
1(
#177023
07
0)
#180000
0!
1-
#180908
0?
#190000
1!
0-
#190857
1?
#192913
0A
1C
0I
1K
#193375
1@
#193395
0B
#193673
1B
#193675
1L
#193832
0J
#195847
15
1+
#196174
04
0,
#196559
08
0(
#196662
19
1'
#200000
0!
1-
#200908
0?
#210000
1!
0-
#210857
1?
#212913
1A
0K
1M
#213395
0@
#213634
0B
#213635
0L
#213644
1N
#213794
1D
#216228
14
1,
#216599
09
0'
#216667
1:
1&
#220000
0!
1-
#220908
0?
#230000
1!
0-
#230857
1?
#232913
0A
0C
1E
0M
1O
#233375
1B
1@
#233395
0D
#233466
0N
#233601
1D
#233651
0B
#233759
1P
#235834
05
0+
#235883
16
1*
#236174
04
0,
#236224
1;
1%
#236607
0:
0&
#240000
0!
1-
#240908
0?
#250000
1!
0-
#250857
1?
#252913
1A
0O
1Q
#253395
0@
#253635
0P
#253647
1R
#253656
1B
#256184
0;
0%
#256225
1<
1$
#256228
14
1,
#260000
0!
1-
#260908
0?
#270000
1!
0-
#270857
1?
#272913
0A
1C
0Q
1S
#273375
1@
#273395
0B
#273460
0D
#273463
0R
#273673
1B
#273759
1T
#273908
1D
#275847
15
1+
#276174
04
0,
#276186
0<
0$
#277227
1=
1#
#280000
0!
1-
#280908
0?
#290000
1!
0-
#290857
1?
#292913
1A
0S
1U
#293395
0@
#293634
0B
#293636
0T
#293646
1F
#293795
0D
#296228
14
1,
#296959
1>
1"
#297161
0=
0#
#300000
0!
1-
#300908
0?
#310000
1!
0-
#310857
1?
#312913
0A
0C
0E
1G
0U
#313375
1D
1B
1@
#313561
0F
#313579
0D
#313651
0B
#313932
1H
#315834
05
0+
#315876
06
0*
#316174
04
0,
#316823
0>
0"
#317198
17
1)
#320000
0!
1-
#320908
0?
#330000
1!
0-
#330857
1?
#332913
1A
0G
1I
#333395
0@
#333633
0H
#333646
1J
#333656
1B
#336228
14
1,
#336614
18
1(
#337023
07
0)
#340000
0!
1-
#340908
0?
#350000
1!
0-
#350857
1?
#352913
0A
1C
0I
1K
#353375
1@
#353395
0B
#353673
1B
#353675
1L
#353832
0J
#355847
15
1+
#356174
04
0,
#356559
08
0(
#356662
19
1'
#360000
0!
1-
#360908
0?
#370000
1!
0-
#370857
1?
#372913
1A
0K
1M
#373395
0@
#373634
0B
#373635
0L
#373644
1N
#373794
1D
#376228
14
1,
#376599
09
0'
#376667
1:
1&
#380000
0!
1-
#380908
0?
#390000
1!
0-
#390857
1?
#392913
0A
0C
1E
0M
1O
#393375
1B
1@
#393395
0D
#393466
0N
#393601
1D
#393651
0B
#393759
1P
#395834
05
0+
#395883
16
1*
#396174
04
0,
#396224
1;
1%
#396607
0:
0&
#400000
0!
1-
#400908
0?
#410000
1!
0-
#410857
1?
#412913
1A
0O
1Q
#413395
0@
#413635
0P
#413647
1R
#413656
1B
#416184
0;
0%
#416225
1<
1$
#416228
14
1,
#420000
0!
1-
#420908
0?
#430000
1!
0-
#430857
1?
#432913
0A
1C
0Q
1S
#433375
1@
#433395
0B
#433460
0D
#433463
0R
#433673
1B
#433759
1T
#433908
1D
#435847
15
1+
#436174
04
0,
#436186
0<
0$
#437227
1=
1#
#440000
0!
1-
#440908
0?
#450000
1!
0-
#450857
1?
#452913
1A
0S
1U
#453395
0@
#453634
0B
#453636
0T
#453646
1F
#453795
0D
#456228
14
1,
#456959
1>
1"
#457161
0=
0#
#460000
0!
1-
#460908
0?
#470000
1!
0-
#470857
1?
#472913
0A
0C
0E
1G
0U
#473375
1D
1B
1@
#473561
0F
#473579
0D
#473651
0B
#473932
1H
#475834
05
0+
#475876
06
0*
#476174
04
0,
#476823
0>
0"
#477198
17
1)
#480000
0!
1-
#480908
0?
#490000
1!
0-
#490857
1?
#492913
1A
0G
1I
#493395
0@
#493633
0H
#493646
1J
#493656
1B
#496228
14
1,
#496614
18
1(
#497023
07
0)
#500000
0!
1-
#500908
0?
#510000
1!
0-
#510857
1?
#512913
0A
1C
0I
1K
#513375
1@
#513395
0B
#513673
1B
#513675
1L
#513832
0J
#515847
15
1+
#516174
04
0,
#516559
08
0(
#516662
19
1'
#520000
0!
1-
#520908
0?
#530000
1!
0-
#530857
1?
#532913
1A
0K
1M
#533395
0@
#533634
0B
#533635
0L
#533644
1N
#533794
1D
#536228
14
1,
#536599
09
0'
#536667
1:
1&
#540000
0!
1-
#540908
0?
#550000
1!
0-
#550857
1?
#552913
0A
0C
1E
0M
1O
#553375
1B
1@
#553395
0D
#553466
0N
#553601
1D
#553651
0B
#553759
1P
#555834
05
0+
#555883
16
1*
#556174
04
0,
#556224
1;
1%
#556607
0:
0&
#560000
0!
1-
#560908
0?
#570000
1!
0-
#570857
1?
#572913
1A
0O
1Q
#573395
0@
#573635
0P
#573647
1R
#573656
1B
#576184
0;
0%
#576225
1<
1$
#576228
14
1,
#580000
0!
1-
#580908
0?
#590000
1!
0-
#590857
1?
#592913
0A
1C
0Q
1S
#593375
1@
#593395
0B
#593460
0D
#593463
0R
#593673
1B
#593759
1T
#593908
1D
#595847
15
1+
#596174
04
0,
#596186
0<
0$
#597227
1=
1#
#600000
0!
1-
#600908
0?
#610000
1!
0-
#610857
1?
#612913
1A
0S
1U
#613395
0@
#613634
0B
#613636
0T
#613646
1F
#613795
0D
#616228
14
1,
#616959
1>
1"
#617161
0=
0#
#620000
0!
1-
#620908
0?
#630000
1!
0-
#630857
1?
#632913
0A
0C
0E
1G
0U
#633375
1D
1B
1@
#633561
0F
#633579
0D
#633651
0B
#633932
1H
#635834
05
0+
#635876
06
0*
#636174
04
0,
#636823
0>
0"
#637198
17
1)
#640000
0!
1-
#640908
0?
#650000
1!
0-
#650857
1?
#652913
1A
0G
1I
#653395
0@
#653633
0H
#653646
1J
#653656
1B
#656228
14
1,
#656614
18
1(
#657023
07
0)
#660000
0!
1-
#660908
0?
#670000
1!
0-
#670857
1?
#672913
0A
1C
0I
1K
#673375
1@
#673395
0B
#673673
1B
#673675
1L
#673832
0J
#675847
15
1+
#676174
04
0,
#676559
08
0(
#676662
19
1'
#680000
0!
1-
#680908
0?
#690000
1!
0-
#690857
1?
#692913
1A
0K
1M
#693395
0@
#693634
0B
#693635
0L
#693644
1N
#693794
1D
#696228
14
1,
#696599
09
0'
#696667
1:
1&
#700000
0!
1-
#700908
0?
#710000
1!
0-
#710857
1?
#712913
0A
0C
1E
0M
1O
#713375
1B
1@
#713395
0D
#713466
0N
#713601
1D
#713651
0B
#713759
1P
#715834
05
0+
#715883
16
1*
#716174
04
0,
#716224
1;
1%
#716607
0:
0&
#720000
0!
1-
#720908
0?
#730000
1!
0-
#730857
1?
#732913
1A
0O
1Q
#733395
0@
#733635
0P
#733647
1R
#733656
1B
#736184
0;
0%
#736225
1<
1$
#736228
14
1,
#740000
0!
1-
#740908
0?
#750000
1!
0-
#750857
1?
#752913
0A
1C
0Q
1S
#753375
1@
#753395
0B
#753460
0D
#753463
0R
#753673
1B
#753759
1T
#753908
1D
#755847
15
1+
#756174
04
0,
#756186
0<
0$
#757227
1=
1#
#760000
0!
1-
#760908
0?
#770000
1!
0-
#770857
1?
#772913
1A
0S
1U
#773395
0@
#773634
0B
#773636
0T
#773646
1F
#773795
0D
#776228
14
1,
#776959
1>
1"
#777161
0=
0#
#780000
0!
1-
#780908
0?
#790000
1!
0-
#790857
1?
#792913
0A
0C
0E
1G
0U
#793375
1D
1B
1@
#793561
0F
#793579
0D
#793651
0B
#793932
1H
#795834
05
0+
#795876
06
0*
#796174
04
0,
#796823
0>
0"
#797198
17
1)
#800000
0!
1-
#800908
0?
#810000
1!
0-
#810857
1?
#812913
1A
0G
1I
#813395
0@
#813633
0H
#813646
1J
#813656
1B
#816228
14
1,
#816614
18
1(
#817023
07
0)
#820000
0!
1-
#820908
0?
#830000
1!
0-
#830857
1?
#832913
0A
1C
0I
1K
#833375
1@
#833395
0B
#833673
1B
#833675
1L
#833832
0J
#835847
15
1+
#836174
04
0,
#836559
08
0(
#836662
19
1'
#840000
0!
1-
#840908
0?
#850000
1!
0-
#850857
1?
#852913
1A
0K
1M
#853395
0@
#853634
0B
#853635
0L
#853644
1N
#853794
1D
#856228
14
1,
#856599
09
0'
#856667
1:
1&
#860000
0!
1-
#860908
0?
#870000
1!
0-
#870857
1?
#872913
0A
0C
1E
0M
1O
#873375
1B
1@
#873395
0D
#873466
0N
#873601
1D
#873651
0B
#873759
1P
#875834
05
0+
#875883
16
1*
#876174
04
0,
#876224
1;
1%
#876607
0:
0&
#880000
0!
1-
#880908
0?
#890000
1!
0-
#890857
1?
#892913
1A
0O
1Q
#893395
0@
#893635
0P
#893647
1R
#893656
1B
#896184
0;
0%
#896225
1<
1$
#896228
14
1,
#900000
0!
1-
#900908
0?
#910000
1!
0-
#910857
1?
#912913
0A
1C
0Q
1S
#913375
1@
#913395
0B
#913460
0D
#913463
0R
#913673
1B
#913759
1T
#913908
1D
#915847
15
1+
#916174
04
0,
#916186
0<
0$
#917227
1=
1#
#920000
0!
1-
#920908
0?
#930000
1!
0-
#930857
1?
#932913
1A
0S
1U
#933395
0@
#933634
0B
#933636
0T
#933646
1F
#933795
0D
#936228
14
1,
#936959
1>
1"
#937161
0=
0#
#940000
0!
1-
#940908
0?
#950000
1!
0-
#950857
1?
#952913
0A
0C
0E
1G
0U
#953375
1D
1B
1@
#953561
0F
#953579
0D
#953651
0B
#953932
1H
#955834
05
0+
#955876
06
0*
#956174
04
0,
#956823
0>
0"
#957198
17
1)
#960000
0!
1-
#960908
0?
#970000
1!
0-
#970857
1?
#972913
1A
0G
1I
#973395
0@
#973633
0H
#973646
1J
#973656
1B
#976228
14
1,
#976614
18
1(
#977023
07
0)
#980000
0!
1-
#980908
0?
#990000
1!
0-
#990857
1?
#992913
0A
1C
0I
1K
#993375
1@
#993395
0B
#993673
1B
#993675
1L
#993832
0J
#995847
15
1+
#996174
04
0,
#996559
08
0(
#996662
19
1'
