Exp02 7 Segment_Display/simulation/qsim/7-Segment_Display.msim.vcd
$comment
	File created using the following command:
		vcd file 7-Segment_Display.msim.vcd -direction
$end
$date
	Wed Oct 19 15:45:04 2011
$end
$version
	ModelSim Version 10.1d
$end
$timescale
	1ps
$end
$scope module Seven_Segment_Display_vlg_vec_tst $end
$var reg 4 ! data [3:0] $end
$var wire 1 " a $end
$var wire 1 # b $end
$var wire 1 $ c $end
$var wire 1 % d $end
$var wire 1 & e $end
$var wire 1 ' f $end
$var wire 1 ( g $end
$var wire 1 ) sel $end
$var wire 1 * sampler $end
$scope module i1 $end
$var wire 1 + gnd $end
$var wire 1 , vcc $end
$var wire 1 - unknown $end
$var tri1 1 . devclrn $end
$var tri1 1 / devpor $end
$var tri1 1 0 devoe $end
$var wire 1 1 a~output_o $end
$var wire 1 2 b~output_o $end
$var wire 1 3 c~output_o $end
$var wire 1 4 d~output_o $end
$var wire 1 5 e~output_o $end
$var wire 1 6 f~output_o $end
$var wire 1 7 g~output_o $end
$var wire 1 8 sel~output_o $end
$var wire 1 9 data[1]~input_o $end
$var wire 1 : data[0]~input_o $end
$var wire 1 ; data[2]~input_o $end
$var wire 1 < data[3]~input_o $end
$var wire 1 = WideOr0~0_combout $end
$var wire 1 > WideOr1~0_combout $end
$var wire 1 ? WideOr2~0_combout $end
$var wire 1 @ WideOr3~0_combout $end
$var wire 1 A WideOr4~0_combout $end
$var wire 1 B WideOr5~0_combout $end
$var wire 1 C WideOr6~0_combout $end
$upscope $end
$upscope $end
$enddefinitions $end
#0
$dumpvars
b0 !
x"
x#
x$
x%
x&
x'
x(
0)
x*
0+
1,
x-
1.
1/
10
x1
x2
x3
x4
x5
x6
x7
08
09
0:
0;
0<
x=
x>
x?
x@
xA
xB
xC
$end
#3945
0A
#3963
0B
#3964
0?
#3977
0>
#3986
0@
#3990
0=
#4335
0C
#6937
12
1#
#7276
15
1&
#7328
13
1$
#7700
07
0(
#7952
16
1'
#8194
11
1"
#8966
14
1%
#50000
b1 !
0*
#50507
1:
#54008
1B
1=
#54012
1@
#54016
1A
#57466
05
0&
#58071
06
0'
#58280
01
0"
#59072
04
0%
#100000
b11 !
b10 !
1*
#100507
19
#100681
0:
#104206
1C
#104224
0@
#104227
0=
#104480
0A
#104482
1?
#107716
17
1(
#107811
15
1&
#107987
03
0$
#108431
11
1"
#109204
14
1%
#150000
b11 !
0*
#150507
1:
#154016
1A
#154032
0?
#157396
13
1$
#157466
05
0&
#200000
b111 !
b101 !
b100 !
1*
#200507
1;
#200681
09
0:
#204019
0C
#204023
1@
#204451
0B
#204469
1C
#204666
1=
#208440
16
1'
#208938
01
0"
#209083
04
0%
#250000
b101 !
0*
#250507
1:
#254002
0=
#254006
0@
#254023
1>
#257105
02
0#
#258206
11
1"
#258986
14
1%
#300000
b111 !
b110 !
1*
#300507
19
#300681
0:
#304480
0A
#307811
15
1&
#350000
b111 !
0*
#350507
1:
#354008
1B
#354012
1@
#354016
1A
#354027
0C
#354031
0>
#356991
12
1#
#357392
07
0(
#357466
05
0&
#358071
06
0'
#359072
04
0%
#400000
b1111 !
b1011 !
b1001 !
b1000 !
1*
#400517
1<
#400681
0;
09
0:
#404456
0@
#404480
0A
#404528
1C
#404644
0B
#407811
15
1&
#408038
17
1(
#408633
16
1'
#409436
14
1%
#450000
b1001 !
0*
#450507
1:
#454016
1A
#457466
05
0&
#500000
b1011 !
b1010 !
1*
#500507
19
#500681
0:
#504203
1>
#504206
1B
1?
#504218
0C
#504219
1@
#504222
1=
#507285
02
0#
#507583
07
0(
#507711
03
0$
#508269
06
0'
#508494
01
0"
#509279
04
0%
#550000
b1011 !
0*
#550507
1:
#600000
b1111 !
b1101 !
b1100 !
1*
#600507
1;
#600681
09
0:
#650000
b1101 !
0*
#650507
1:
#700000
b1111 !
b1110 !
1*
#700507
19
#700681
0:
#750000
b1111 !
0*
#750507
1:
